1;/photos
78;/photos/recup donnees maxime/2012-08-31/2012-11-29
79;/photos/recup donnees maxime/2013-09-25/2013-09-06
80;/photos/recup donnees maxime/Mes numérisations/2013-12 (déc.)
81;/photos/recup donnees maxime/Mes numérisations/2013-05 (mai)
82;/photos/recup donnees maxime/Mes numérisations/2013-01 (janv.)
83;/photos/recup donnees maxime/photos/loisiparc
84;/photos/recup donnees maxime/photos/2009
85;/photos/recup donnees maxime/2013-04-09/2013-04-04
86;/photos/recup donnees maxime/azeline 2 an/Sample Pictures
87;/photos/Photos a trier/Videos nouvel an/nouvel an 2003-2004 1
88;/photos/Photos a trier/Videos nouvel an/photos nouvel an 2
89;/photos/2015/Mariage Lydie Damien/Photos Mariage Lydie Damien
90;/photos/2017/ATHENES/STADE OLYMPIQUE
91;/photos/2017/ATHENES/FOOT AEK ATHENES VS MILAN AC
92;/photos/2017/ATHENES/BASKET PANATHINAIKOS VS FENERBHACE
93;/photos/2017/ATHENES/LE PYRÉE
94;/photos/2017/ATHENES/ACROPOLE
96;/photos/2017/ATHENES/STADE PANATHEON
97;/photos/2017/ATHENES/PALAIS PRESIDENTIEL
98;/photos/2017/S7 edge pictures/Camera
99;/photos/2019/Thailand/2019-07-26
100;/photos/A trier/101_1903/Vendredi 19.03
101;/photos/Aurore Photos samsung/DCIM/Facebook
102;/photos/Aurore Photos samsung/DCIM/Camera
103;/photos/2017/ATHENES/PARK NATIONAL
140;/photos/2013/DCIM/100NIKON
143;/photos/recup donnees maxime/photos/loukas/anniversaire loulou 1 ans
144;/photos/recup donnees maxime/photos/loukas/loukas 23 mois
145;/photos/recup donnees maxime/photos/loukas/loukas 20 mois et noel 2009
146;/photos/recup donnees maxime/photos/loukas/loukas 13 mois
147;/photos/recup donnees maxime/photos/loukas/loukas 14 mois
148;/photos/recup donnees maxime/photos/loukas/noel 2010
149;/photos/recup donnees maxime/photos/loukas/loukas 11 mois
150;/photos/recup donnees maxime/photos/loukas/loukas 2a 3 mois
151;/photos/recup donnees maxime/photos/loukas/loukas eurodisney mai 2011
152;/photos/recup donnees maxime/photos/loukas/mariage
153;/photos/recup donnees maxime/photos/loukas/bateme noah 090808 loukas 5 mois
154;/photos/recup donnees maxime/photos/loukas/loukas 3 ans et demi
155;/photos/recup donnees maxime/photos/loukas/loukas 26 mois
156;/photos/recup donnees maxime/photos/2008/mariage christine
157;/photos/recup donnees maxime/photos/2008/soirée chez christine le 080808
158;/photos/recup donnees maxime/photos/2011/noel 2011
159;/photos/recup donnees maxime/photos/azeline/azeline 4 m
160;/photos/recup donnees maxime/photos/2009/communion steven le 31 mai 009
161;/photos/recup donnees maxime/photos/azeline/azeline 6 m
162;/photos/recup donnees maxime/photos/azeline/azeline 2 mois
163;/photos/recup donnees maxime/photos/azeline/azeline 9 m
164;/photos/recup donnees maxime/photos/azeline/azeline 12 m
165;/photos/recup donnees maxime/photos/azeline/azeline 5 m
166;/photos/recup donnees maxime/photos/loukas/Anniversaire loukas 3 ans et azéline 1 mois
167;/photos/recup donnees maxime/photos/azeline/azeline 10 m
168;/photos/recup donnees maxime/photos/azeline/azéline 1 mois et demi
169;/photos/recup donnees maxime/photos/azeline/azeline 7 m
170;/photos/recup donnees maxime/photos/azeline/azéline 1 a 3 semaine
171;/photos/recup donnees maxime/photos/azeline/azeline 8 m
172;/photos/recup donnees maxime/photos/azeline/bapteme azeline 4 mois
173;/photos/recup donnees maxime/photos/azeline/azeline 11 mois
174;/photos/recup donnees maxime/photos/azeline/azeline 3 m
176;/photos/recup donnees maxime/photos/loukas/noel 2009
177;/photos/recup donnees maxime/photos/loukas/loukas 3 anset 7 m
178;/photos/recup donnees maxime/photos/loukas/bateme loulou/2008-10-26 baptème loukas
179;/photos/recup donnees maxime/photos/loukas/loukas 24 mois/loukas 10 mois
180;/photos/recup donnees maxime/photos/loukas/loukas 14 mois/loukas 14 mois 2
181;/photos/recup donnees maxime/photos/2011/noel 2011/soiré christine 2011
182;/photos/recup donnees maxime/photos/2011/noel 2011/anniv max
183;/photos/recup donnees maxime/photos/azeline/azéline 1 a 3 semaine/azéline bis
184;/photos/recup donnees maxime/photos/azeline/azeline 12 m/anniv azeline 1 an
185;/photos/recup donnees maxime/photos/azeline/azeline 2 mois/teuf retour lolo le 11.01.2003
186;/photos/Logiciel/Adobe Photoshop Lightroom Classic CC 2018 v7.1.0.10 Final (x64) Ml_Rus/Build/HD/LTRM7.1
187;/photos/recup donnees maxime/photos/2003/reveillon an 2003 chez matthieu
188;/photos/recup donnees maxime/photos/2003/15 aout 2003 + chez matthieu
189;/photos/recup donnees maxime/photos/2003/nouvel an 2003-2004 1
190;/photos/recup donnees maxime/photos/2003/Anniversaire sandy + chatons bernard
191;/photos/recup donnees maxime/photos/2003/nouvel an 2003-2004 2
192;/photos/recup donnees maxime/photos/loukas/loukas 16 mois
193;/photos/recup donnees maxime/photos/loukas/loukas 3 ans et 4 m
194;/photos/recup donnees maxime/photos/loukas/loukas 2 ans
195;/photos/recup donnees maxime/photos/loukas/carnaval ecole loukas 2011
196;/photos/recup donnees maxime/photos/loukas/loukas paris
197;/photos/recup donnees maxime/photos/loukas/paque 2011 loukas
198;/photos/recup donnees maxime/photos/loukas/loukas 4 ans
199;/photos/recup donnees maxime/photos/loukas/loukas 3 ans et 9 m
200;/photos/recup donnees maxime/photos/loukas/Meeting Aerien
201;/photos/recup donnees maxime/photos/loukas/aniv école loulou
202;/photos/recup donnees maxime/photos/loukas/loukas 17 mois
203;/photos/recup donnees maxime/photos/loukas/Loukas 8 mois
204;/photos/recup donnees maxime/photos/loukas/eurodysney octobre 2008
205;/photos/recup donnees maxime/photos/loukas/loukas maternité
206;/photos/recup donnees maxime/photos/loukas/loukas 24 mois
207;/photos/recup donnees maxime/photos/loukas/loukas3  ans et demi
208;/photos/recup donnees maxime/photos/loukas/loukas 18 mois
209;/photos/recup donnees maxime/photos/loukas/loukas3 ans et 11 mois
248;/photos/2009/Juillet 2009/101_0407/Exportation sans titre
249;/photos/2010/A trier/101_1903/Vendredi 19.03
250;/photos/Logiciel/Adobe Photoshop Lightroom Classic CC 2018 v7.1.0.10 Final (x64) Ml_Rus/Medicine/amtemu.v0.9.2.win-painter
281;/photos/2013/DCIM/101NIKON
282;/photos/2010/Top12 düsseldorf/103_0602
283;/photos/2010/Top12 düsseldorf/104_0702
284;/photos/A trier/110_1512
285;/photos/A trier/101_1508
286;/photos/A trier/112_2012
287;/photos/A trier/104_1909
288;/photos/A trier/109_0211
289;/photos/A trier/Chez marc
290;/photos/A trier/108_1810
291;/photos/A trier/103_0609
292;/photos/A trier/107_1010
293;/photos/A trier/105_2703
294;/photos/A trier/106_0410
295;/photos/A trier/102_1608
296;/photos/A trier/105_2009
297;/photos/A trier/111_1912
298;/photos/2020/Chat
299;/photos/2019/Ubud 15.08.19
300;/photos/2019/Thailand
301;/photos/2014/Dublin
302;/photos/2014/Photos reveillon
303;/photos/2015/California
304;/photos/2015/Photos coco
305;/photos/2015/chiens
306;/photos/2016/photo de jeremy
307;/photos/Angie photos/photos
308;/photos/2016/photos leeds wolverhampton
309;/photos/2017/ILE D HYDRA
310;/photos/2017/ATHENES
311;/photos/2017/Enigma digital 07.2017
312;/photos/2018/Avril 2018
313;/photos/2019/Untitled Export
314;/photos/2019/Bangkok
315;/photos/2017/CORYNTHE
316;/photos/2014/100CANON
317;/photos/Aurore Photos samsung/Camera
318;/photos/Photod Aurore/photos
319;/photos/recup donnees maxime/2014-06-26
320;/photos/recup donnees maxime/2013-12-30
321;/photos/recup donnees maxime/2014-09-16
322;/photos/recup donnees maxime/2014-10-15
323;/photos/recup donnees maxime/2014-05-08
324;/photos/recup donnees maxime/2014-04-20
325;/photos/recup donnees maxime/2015-01-10
326;/photos/recup donnees maxime/2012-04-25
327;/photos/recup donnees maxime/2014-04-21
328;/photos/recup donnees maxime/2012-07-13
329;/photos/recup donnees maxime/2014-02-28
330;/photos/recup donnees maxime/bateme anthea
331;/photos/recup donnees maxime/2014-10-22
332;/photos/recup donnees maxime/2015-01-03
333;/photos/recup donnees maxime/2013-04-09
334;/photos/recup donnees maxime/2014-10-12
335;/photos/recup donnees maxime/2014-10-11
336;/photos/Photos Smartphone/photo_stream_photos
337;/photos/Photos Smartphone/camera_roll_photos
338;/photos/Photos a trier/photos
339;/photos/hommage PAPA/cérémonie Papa
340;/photos/hommage PAPA/musique crématorium
341;/photos/iPhone7Plus/Photos
342;/photos/Aurore Photos samsung/DCIM
343;/photos/recup donnees maxime/2015-01-12
344;/photos/recup donnees maxime/2014-08-20
345;/photos/recup donnees maxime/2013-02-27
346;/photos/recup donnees maxime/2013-03-20
347;/photos/recup donnees maxime/azeline 2 an
348;/photos/recup donnees maxime/103_FUJI
349;/photos/recup donnees maxime/2014-03-13
350;/photos/recup donnees maxime/2015-01-06 001
351;/photos/2013/Dev photo
352;/photos/2012/100EOS7D
353;/photos/2012/Dieudo la bande de Caudry
354;/photos/2009/du monde chez moi
355;/photos/2009/Calvin 10 octobre 2009
356;/photos/2008/Croatie 2008
357;/photos/2007/photos
358;/photos/2006/Krefeld & Tennis de table Charleroi
359;/photos/2005/Divers 2005
360;/photos/2005/Divers
361;/photos/2005/welcome
362;/photos/2005/WE a l'étang - 16-07-05
363;/photos/2004/Paris avec Romain
364;/photos/2004/bacl
365;/photos/2004/WE a l'etang 10-07-04
366;/photos/2003/fb
367;/photos/2003/Black et Ben
368;/photos/2003/15 Aout
369;/photos/2003/Retour lolo afghanistan
370;/photos/photos
371;/photos/100APPLE
372;/photos/100MEDIA
373;/photos/100_0304
374;/photos/2006
375;/photos/2009
376;/photos/Photo Cambrai
377;/photos/2009/Diverses photos 2009
378;/photos/Photod Aurore
379;/photos/Photos identité
380;/photos/Photos iphone maman
381;/photos/Photos maman
382;/photos/Photos serge
383;/photos/Sauvegarde photos kevin sept2012
384;/photos/Skylum Luminar v4.2.0.5577
385;/photos/Photos Smartphone
386;/photos/2009/Louka - 18 octobre 2009
387;/photos/2009/chiots
388;/photos/2009/Matchs Kamplintfort
389;/photos/2010/Altenahr
390;/photos/2010/Weekend Gerlind
391;/photos/2010/tofs
392;/photos/2010/Ping Magdeburg Octobre 2010
393;/photos/2010/Auf der Terasse
394;/photos/2010/pENTAX k20D
395;/photos/2010/Weekend_Damblainville
396;/photos/2011/Photos charlou
397;/photos/2011/Photos lolo mariage Cathy&Matthieu
398;/photos/2011/Photos Cathy
399;/photos/2011/Bapteme loulou 03.07.2011
400;/photos/2011/Photos Patricia
401;/photos/2011/Chez max 25.04.2011
402;/photos/2012/Camera
403;/photos/2011/Mariage Florence&Dominique 02.07.2011
404;/photos/recup donnees maxime/azeline 18 mois
405;/photos/2010/Luka
406;/photos/2010/Ecosse et Irlande juillet 2010
407;/photos/2009/Torcy&Paris 08-10052009
408;/photos/2009/Calvin 18042009
409;/photos/2009/04 octobre 2009
410;/photos/2009/fin de soirée kamp lintfort
411;/photos/2010/Königswinter Juni 2010
412;/photos/2010/Berck Cerf volants
413;/photos/2010/100_0304
414;/photos/2010/Coco Sept 2010
415;/photos/2010/Le porge océan
416;/photos/2010/Petanque Düsseldorf
417;/photos/2010/Sigma 10-20
418;/photos/2010/Berlin sept 2010
419;/photos/2010/Borussia Düsseldorf - Fulda
420;/photos/2010/Soirée Marco
421;/photos/2010/1er janvier 2010 Chez Sylvine & Kevin
422;/photos/recup donnees maxime/2013-03-24
423;/photos/recup donnees maxime/2013-09-25
424;/photos/recup donnees maxime/2013-12-17
425;/photos/2009/Croatie 2009/104_2707
426;/photos/2009/Croatie 2009/Mercredi_29_juillet_2009
427;/photos/2009/Croatie 2009/100_3007
428;/photos/2009/Croatie 2009/Dimanche_19_juillet_2009
429;/photos/2009/Croatie 2009/Developpement
430;/photos/2009/Croatie 2009/102_2507
431;/photos/2009/Croatie 2009/106_2307
432;/photos/2009/Croatie 2009/Jeudi_30_juillet_2009
433;/photos/2009/Croatie 2009/104_2007
434;/photos/2009/Croatie 2009/Samedi_25_juillet_2009
435;/photos/2009/Croatie 2009/Vendredi_17_juillet_2009
436;/photos/2009/Croatie 2009/Samedi_18_juillet_2009
437;/photos/2009/Croatie 2009/101_1707
438;/photos/2009/Croatie 2009/102_1807
439;/photos/2009/Croatie 2009/Facebook
440;/photos/2009/Köln-Düsseldorf 15-16-17052009/100_1505
441;/photos/2009/Köln-Düsseldorf 15-16-17052009/101_1605
442;/photos/2009/Tarascon sur ariege/11juillet
443;/photos/2009/Tarascon sur ariege/105_1407
444;/photos/2009/Tarascon sur ariege/104_1307
445;/photos/2009/Tarascon sur ariege/13juillet
446;/photos/2009/Tarascon sur ariege/12juillet
447;/photos/2009/Tarascon sur ariege/103_1207
448;/photos/2009/Croatie 2009/HDR
449;/photos/2009/Torcy&Paris 08-10052009/Torcy
450;/photos/2009/Calvin 20 septembre 2009/105_2009
451;/photos/2009/Calvin 20 septembre 2009/104_1909
452;/photos/2009/Calvin.27-28juin2009/112_2806
453;/photos/2009/Calvin.27-28juin2009/DEV
454;/photos/2009/Calvin.27-28juin2009/110_2606
455;/photos/2009/Köln-Düsseldorf 15-16-17052009/102_1705
456;/photos/2009/Torcy&Paris 08-10052009/101_0905
457;/photos/2009/Croatie 2009/103_2607
458;/photos/2009/Croatie 2009/Lundi_27_juillet_2009
459;/photos/2009/Croatie 2009/100_2307
460;/photos/2010/A trier/107_1010
461;/photos/2010/A trier/103_0609
462;/photos/2010/A trier/108_1810
463;/photos/2010/A trier/Chez marc
464;/photos/2010/A trier/109_0211
465;/photos/2010/A trier/104_1909
466;/photos/2010/A trier/105_2703
467;/photos/2010/A trier/112_2012
468;/photos/2010/A trier/110_1512
469;/photos/2010/Couscous/102_2102
470;/photos/2010/Couscous/101_2002
471;/photos/2010/Couscous/100_1702
472;/photos/2010/Berlin/Samedi 20.03
473;/photos/2010/Berlin/Vendredi 19.03
474;/photos/2010/A trier/101_1508
475;/photos/2009/Week end 15 aout 2009 Damblainville/101_1508
476;/photos/2010/A trier/106_0410
477;/photos/2010/A trier/105_2009
478;/photos/2009/Croatie 2009/106_2907
479;/photos/2009/Croatie 2009/Dimanche_26_juillet_2009
480;/photos/2009/Croatie 2009/Jeudi_23_juillet_2009
481;/photos/2009/Croatie 2009/103_1907
482;/photos/2009/Croatie 2009/Lundi_20_juillet_2009
483;/photos/2009/Croatie 2009/101_2407
484;/photos/2010/A trier/102_1608
485;/photos/2010/1er janvier 2010 Chez Sylvine & Kevin/Calvin
486;/photos/2010/NRW/Jardin Japonais
487;/photos/2010/NRW/Chateaux et monuments
488;/photos/2010/NRW/Paysages
489;/photos/2010/NRW/Fleurs et plantes
490;/photos/2010/NRW/Animaux
491;/photos/2010/A trier/111_1912
492;/photos/2010/Sigma 10-20/Exportation sans titre
493;/photos/recup donnees maxime/photos/loukas/bateme loulou/2008-10-25 baptème loukas
494;/photos/2009/Week end 15 aout 2009 Damblainville/100_1408
495;/photos/2009/Communion Yohan/JPG retouchees
496;/photos/recup donnees maxime/104_FUJI
497;/photos/recup donnees maxime/2008_0601Sandy le 31-05-2008
498;/photos/recup donnees maxime/2013-05-28 001
499;/photos/recup donnees maxime/disneyland 5 ans de loukas
500;/photos/recup donnees maxime/2014-08-24
501;/photos/recup donnees maxime/2012-04-20
502;/photos/recup donnees maxime/2015-01-22
503;/photos/recup donnees maxime/2014-03-19
504;/photos/recup donnees maxime/2013-04-18
505;/photos/recup donnees maxime/2014-08-30
506;/photos/recup donnees maxime/2014-08-27
507;/photos/recup donnees maxime/2014-01-28
508;/photos/recup donnees maxime/2013-10-24
509;/photos/recup donnees maxime/2014-06-13
510;/photos/recup donnees maxime/2014-12-25
511;/photos/recup donnees maxime/2014-03-09
512;/photos/recup donnees maxime/2015-01-14
513;/photos/recup donnees maxime/2014-09-06
514;/photos/recup donnees maxime/2014-12-29 noel 2014
515;/photos/recup donnees maxime/2015-01-05
516;/photos/recup donnees maxime/2014-10-20
517;/photos/recup donnees maxime/2014-06-22
518;/photos/recup donnees maxime/2015-01-09 001
519;/photos/recup donnees maxime/2014-08-28
520;/photos/recup donnees maxime/2013-03-17
521;/photos/recup donnees maxime/2012-08-31
522;/photos/recup donnees maxime/2014-12-29
523;/photos/recup donnees maxime/2014-09-07
524;/photos/recup donnees maxime/2015-01-05 001
525;/photos/recup donnees maxime/2014-06-28
526;/photos/recup donnees maxime/2014-09-24
527;/photos/recup donnees maxime/2014-10-23
528;/photos/recup donnees maxime/2013-02-10 001
543;/photos/2003/Nouvel an 2003-2004/photos nouvel an 2
544;/photos/2003/Nouvel an 2003-2004/nouvel an 2003-2004 1
546;/photos/2009/Week end 15 aout 2009 Damblainville/102_1608
564;/photos/recup donnees maxime/photos/2003/reveillon an 2003 chez matthieu/reveillon an 2003 chez matthieu(1)
